2014-11-13 04:58:26 identical assets/css/responsive.css 
2014-11-13 04:58:34    create assets/css/partials/animate.min.css 
2014-11-13 04:58:35 overwrite assets/css/partials/font-awesome.css 
2014-11-13 04:58:50 overwrite assets/css/partials/bootstrap/bootstrap.css 
2014-11-13 04:58:50 identical assets/css/themes/bootstrap-select.css 
2014-11-13 05:18:01 overwrite assets/css/style.css 
2014-11-13 05:26:36 overwrite assets/css/style.css 
2014-11-13 05:27:10 overwrite assets/css/style.css 
2014-11-13 05:27:32 overwrite assets/css/style.css 
2014-11-13 05:29:18 overwrite assets/css/style.css 
2014-11-13 05:29:27 identical assets/css/style.css 
2014-11-13 05:29:49 overwrite assets/css/style.css 
2014-11-13 05:51:43 overwrite assets/css/style.css 
2014-11-13 05:52:09 overwrite assets/css/style.css 
2014-11-13 05:56:37 overwrite assets/css/style.css 
2014-11-13 05:57:00 overwrite assets/css/style.css 
2014-11-13 05:57:19 overwrite assets/css/style.css 
2014-11-13 05:59:49 overwrite assets/css/style.css 
2014-11-13 06:01:12 overwrite assets/css/style.css 
2014-11-13 06:01:57 overwrite assets/css/style.css 
2014-11-13 06:03:06 overwrite assets/css/style.css 
2014-11-13 09:46:00 overwrite assets/css/style.css 
2014-11-13 14:07:39 overwrite assets/css/style.css 
2014-11-13 21:44:02 overwrite assets/css/style.css 
2014-11-13 21:45:02 overwrite assets/css/style.css 
2014-11-13 21:45:47 overwrite assets/css/style.css 
2014-11-13 21:46:21 overwrite assets/css/style.css 
2014-11-13 21:47:24 identical assets/css/style.css 
2014-11-13 21:47:31 identical assets/css/style.css 
2014-11-13 21:47:57 identical assets/css/style.css 
2014-11-13 21:48:18 overwrite assets/css/style.css 
2014-11-13 21:49:05 overwrite assets/css/style.css 
2014-11-13 21:49:22 overwrite assets/css/style.css 
2014-11-13 21:50:38 overwrite assets/css/style.css 
2014-11-13 21:51:16 overwrite assets/css/style.css 
2014-11-13 21:51:50 overwrite assets/css/style.css 
2014-11-13 21:52:45 overwrite assets/css/style.css 
2014-11-13 21:53:22 overwrite assets/css/style.css 
2014-11-13 21:54:02 overwrite assets/css/style.css 
2014-11-13 22:02:04 overwrite assets/css/style.css 
2014-11-13 22:02:24 overwrite assets/css/style.css 
2014-11-13 22:02:52 overwrite assets/css/style.css 
2014-11-13 22:03:24 overwrite assets/css/style.css 
2014-11-13 22:04:07 overwrite assets/css/style.css 
2014-11-13 22:04:32 overwrite assets/css/style.css 
2014-11-14 00:17:21 overwrite assets/css/style.css 
2014-11-14 00:17:35 overwrite assets/css/style.css 
2014-11-14 00:18:33 overwrite assets/css/style.css 
2014-11-14 00:21:39     error assets/sass/style.scss (Line 74 of assets/sass/themes/_blog.scss: Undefined variable: "$mgenta-dark".)
2014-11-14 00:21:39 overwrite assets/css/style.css 
2014-11-14 00:21:59 overwrite assets/css/style.css 
2014-11-14 00:22:09 identical assets/css/style.css 
2014-11-14 00:22:22 overwrite assets/css/style.css 
2014-11-14 00:22:30 identical assets/css/style.css 
2014-11-14 00:22:57 overwrite assets/css/style.css 
2014-11-14 00:23:45 overwrite assets/css/style.css 
2014-11-14 00:24:11 overwrite assets/css/style.css 
2014-11-14 00:25:31 overwrite assets/css/style.css 
2014-11-14 00:25:58 identical assets/css/style.css 
2014-11-14 00:26:09 identical assets/css/style.css 
2014-11-14 00:26:39 identical assets/css/style.css 
2014-11-14 00:27:37 overwrite assets/css/style.css 
2014-11-14 00:27:57 overwrite assets/css/style.css 
2014-11-14 00:28:13 overwrite assets/css/style.css 
2014-11-14 00:29:43 overwrite assets/css/style.css 
2014-11-14 00:33:53 overwrite assets/css/style.css 
2014-11-14 00:34:57 overwrite assets/css/style.css 
2014-11-14 00:35:34 overwrite assets/css/style.css 
2014-11-14 00:35:53 identical assets/css/style.css 
2014-11-14 00:36:11 overwrite assets/css/style.css 
2014-11-14 00:37:14 overwrite assets/css/style.css 
2014-11-14 00:38:55 overwrite assets/css/style.css 
2014-11-14 00:39:29 overwrite assets/css/style.css 
2014-11-14 00:39:51 overwrite assets/css/style.css 
2014-11-14 00:40:40 identical assets/css/style.css 
2014-11-14 00:41:00 overwrite assets/css/style.css 
2014-11-14 00:41:53 overwrite assets/css/style.css 
2014-11-14 00:42:24 overwrite assets/css/style.css 
2014-11-14 00:43:17 overwrite assets/css/style.css 
2014-11-14 00:44:10 overwrite assets/css/style.css 
2014-11-14 00:50:55 overwrite assets/css/style.css 
2014-11-14 04:25:36 overwrite assets/css/style.css 
2014-11-14 04:51:12 overwrite assets/css/style.css 
2014-11-14 04:51:40 overwrite assets/css/style.css 
2014-11-14 04:52:40 overwrite assets/css/style.css 
2014-11-14 04:53:05 identical assets/css/style.css 
2014-11-14 05:05:58 overwrite assets/css/style.css 
2014-11-14 05:06:20 overwrite assets/css/style.css 
2014-11-14 05:07:30 overwrite assets/css/style.css 
2014-11-14 05:08:32 overwrite assets/css/style.css 
2014-11-14 05:08:45 overwrite assets/css/style.css 
2014-11-14 05:09:37 overwrite assets/css/style.css 
2014-11-14 05:10:21 overwrite assets/css/style.css 
2014-11-14 05:11:58 identical assets/css/style.css 
2014-11-14 05:27:33 overwrite assets/css/style.css 
2014-11-14 05:28:18 overwrite assets/css/style.css 
2014-11-14 05:37:08 overwrite assets/css/style.css 
2014-11-14 05:41:46 overwrite assets/css/style.css 
2014-11-14 09:36:59 overwrite assets/css/style.css 
2014-11-14 09:38:17 identical assets/css/style.css 
2014-11-14 09:39:09 overwrite assets/css/style.css 
2014-11-14 10:28:19 overwrite assets/css/style.css 
2014-11-14 10:33:19 overwrite assets/css/style.css 
2014-11-14 10:40:05 overwrite assets/css/style.css 
2014-11-14 10:40:35 overwrite assets/css/style.css 
2014-11-14 10:44:59 overwrite assets/css/style.css 
2014-11-14 10:45:23 overwrite assets/css/style.css 
2014-11-14 10:45:32 identical assets/css/style.css 
2014-11-14 10:46:05 identical assets/css/style.css 
2014-11-14 10:46:12 overwrite assets/css/style.css 
2014-11-14 10:46:32 overwrite assets/css/style.css 
2014-11-14 10:52:03 overwrite assets/css/style.css 
2014-11-14 10:54:20 overwrite assets/css/style.css 
2014-11-14 11:08:51 overwrite assets/css/style.css 
2014-11-14 11:19:04 identical assets/css/style.css 
2014-11-14 11:19:42 overwrite assets/css/style.css 
2014-11-14 11:19:51 identical assets/css/style.css 
2014-11-14 11:19:56 overwrite assets/css/style.css 
2014-11-14 11:23:05 identical assets/css/style.css 
2014-11-14 11:23:53 identical assets/css/style.css 
2014-11-14 11:23:58 identical assets/css/style.css 
2014-11-14 11:24:06 overwrite assets/css/style.css 
2014-11-14 13:24:23 overwrite assets/css/style.css 
2014-11-14 13:31:37 identical assets/css/style.css 
2014-11-14 13:31:55 identical assets/css/style.css 
2014-11-14 13:32:33 overwrite assets/css/style.css 
2014-11-14 13:47:17 overwrite assets/css/style.css 
2014-11-14 13:47:57 identical assets/css/style.css 
2014-11-14 13:48:49     error assets/sass/style.scss (Line 106 of assets/sass/themes/_sidebar.scss: Invalid CSS after "...r:$magenta-dark": expected ";", was ".table{")
2014-11-14 13:48:49 overwrite assets/css/style.css 
2014-11-14 13:48:54     error assets/sass/style.scss (Line 106 of assets/sass/themes/_sidebar.scss: Invalid CSS after "...r:$magenta-dark": expected ";", was ".table{")
2014-11-14 13:48:54 identical assets/css/style.css 
2014-11-14 13:49:01     error assets/sass/style.scss (Line 106 of assets/sass/themes/_sidebar.scss: Invalid CSS after "...r:$magenta-dark": expected ";", was ".table{")
2014-11-14 13:49:01 identical assets/css/style.css 
2014-11-14 13:49:06     error assets/sass/style.scss (Line 106 of assets/sass/themes/_sidebar.scss: Invalid CSS after "...r:$magenta-dark": expected ";", was ".table{")
2014-11-14 13:49:06 identical assets/css/style.css 
2014-11-14 13:50:28 overwrite assets/css/style.css 
2014-11-15 05:57:45     error assets/sass/style.scss (Line 6 of assets/sass/themes/_portofolio.scss: Invalid CSS after "	color:": expected expression (e.g. 1px, bold), was "@font-color;")
2014-11-15 05:57:45 overwrite assets/css/style.css 
2014-11-15 06:00:52     error assets/sass/style.scss (Line 6 of assets/sass/themes/_portofolio.scss: Invalid CSS after "	color:": expected expression (e.g. 1px, bold), was "@font-color;")
2014-11-15 06:00:52 identical assets/css/style.css 
2014-11-15 07:04:28 overwrite assets/css/style.css 
2014-11-15 07:06:07 identical assets/css/style.css 
2014-11-15 10:29:50    create assets/css/partials/grid_thumbs.css 
2014-11-15 12:05:41 overwrite assets/css/style.css 
2014-11-15 12:11:28 overwrite assets/css/style.css 
2014-11-15 12:12:05 overwrite assets/css/style.css 
2014-11-15 12:46:53 identical assets/css/responsive.css 
2014-11-15 12:46:58 identical assets/css/style.css 
2014-11-15 12:47:49     error assets/sass/style.scss (Line 64 of assets/sass/themes/_main.scss: Invalid CSS after "	@include ": expected identifier, was "(max-width: $sc...")
2014-11-15 12:47:49 overwrite assets/css/style.css 
2014-11-15 12:47:56     error assets/sass/style.scss (Line 64 of assets/sass/themes/_main.scss: Invalid CSS after "	@include ": expected identifier, was "(max-width: $sc...")
2014-11-15 12:47:56 identical assets/css/style.css 
2014-11-15 12:49:02     error assets/sass/style.scss (Line 65 of assets/sass/themes/_main.scss: Invalid CSS after "	@include ": expected identifier, was "(max-width: $sc...")
2014-11-15 12:49:02 overwrite assets/css/style.css 
2014-11-15 12:49:07     error assets/sass/style.scss (Line 65 of assets/sass/themes/_main.scss: Invalid CSS after "	@include ": expected identifier, was "(max-width: $sc...")
2014-11-15 12:49:07 identical assets/css/style.css 
2014-11-15 12:49:14     error assets/sass/style.scss (Line 65 of assets/sass/themes/_main.scss: Invalid CSS after "	@include ": expected identifier, was "(max-width:$scr...")
2014-11-15 12:49:14 overwrite assets/css/style.css 
2014-11-15 12:49:18     error assets/sass/style.scss (Line 65 of assets/sass/themes/_main.scss: Invalid CSS after "	@include ": expected identifier, was "(max-width:$scr...")
2014-11-15 12:49:18 identical assets/css/style.css 
2014-11-15 12:49:25     error assets/sass/style.scss (Line 65 of assets/sass/themes/_main.scss: Invalid CSS after "	@include ": expected identifier, was "(max-width:$scr...")
2014-11-15 12:49:25 identical assets/css/style.css 
2014-11-15 12:49:29     error assets/sass/style.scss (Line 65 of assets/sass/themes/_main.scss: Invalid CSS after "	@include ": expected identifier, was "(max-width:$scr...")
2014-11-15 12:49:29 identical assets/css/style.css 
2014-11-15 12:49:51     error assets/sass/style.scss (Line 65 of assets/sass/themes/_main.scss: Invalid CSS after "	@include ": expected identifier, was "(max-width:$scr...")
2014-11-15 12:49:51 identical assets/css/style.css 
2014-11-15 12:50:31     error assets/sass/style.scss (Line 53 of assets/sass/themes/_main.scss: Undefined mixin 'col-md-sm-'.)
2014-11-15 12:50:31 overwrite assets/css/style.css 
2014-11-15 12:51:09 overwrite assets/css/style.css 
2014-11-15 12:53:42 overwrite assets/css/style.css 
2014-11-15 12:54:59 identical assets/css/style.css 
2014-11-15 12:56:40 overwrite assets/css/style.css 
2014-11-15 12:57:09 identical assets/css/style.css 
2014-11-15 12:57:23 overwrite assets/css/style.css 
2014-11-15 13:00:56 identical assets/css/responsive.css 
2014-11-15 13:01:01 identical assets/css/style.css 
2014-11-15 13:01:17 identical assets/css/responsive.css 
2014-11-15 13:01:21 identical assets/css/style.css 
2014-11-15 13:01:31     error assets/sass/style.scss (Line 27 of assets/sass/base/_general.scss: Invalid CSS after "	@include ": expected identifier, was "(min-width : $s...")
2014-11-15 13:01:31 overwrite assets/css/style.css 
2014-11-15 13:01:36     error assets/sass/style.scss (Line 27 of assets/sass/base/_general.scss: Invalid CSS after "	@include ": expected identifier, was "(min-width : $s...")
2014-11-15 13:01:37 identical assets/css/style.css 
2014-11-15 13:01:58 overwrite assets/css/style.css 
2014-11-15 13:30:47 overwrite assets/css/style.css 
2014-11-15 13:32:38 identical assets/css/style.css 
2014-11-15 13:32:54 overwrite assets/css/style.css 
2014-11-15 13:34:27 overwrite assets/css/style.css 
2014-11-15 13:36:45 overwrite assets/css/style.css 
2014-11-15 13:38:04 overwrite assets/css/style.css 
2014-11-15 13:38:31 overwrite assets/css/style.css 
2014-11-15 13:39:57 overwrite assets/css/style.css 
2014-11-15 13:44:43 identical assets/css/style.css 
2014-11-15 13:59:00     error assets/sass/style.scss (Line 28 of assets/sass/themes/_navigation.scss: Invalid CSS after "			@madia ": expected "}", was "(min-width : $s...")
2014-11-15 13:59:00 overwrite assets/css/style.css 
2014-11-15 13:59:04     error assets/sass/style.scss (Line 28 of assets/sass/themes/_navigation.scss: Invalid CSS after "			@madia ": expected "}", was "(min-width : $s...")
2014-11-15 13:59:04 identical assets/css/style.css 
2014-11-15 14:05:50     error assets/sass/style.scss (Line 28 of assets/sass/themes/_navigation.scss: Undefined variable: "$scree-lg".)
2014-11-15 14:05:50 overwrite assets/css/style.css 
2014-11-15 14:08:31 overwrite assets/css/style.css 
2014-11-15 14:11:08 overwrite assets/css/style.css 
2014-11-15 14:20:00 overwrite assets/css/style.css 
2014-11-15 14:26:21 overwrite assets/css/style.css 
2014-11-15 14:26:38 overwrite assets/css/style.css 
2014-11-15 14:27:59 overwrite assets/css/style.css 
2014-11-15 14:30:03 overwrite assets/css/style.css 
2014-11-15 14:31:04     error assets/sass/style.scss (Line 57 of assets/sass/themes/_main.scss: Invalid CSS after "			$screen-md": expected ":", was "{")
2014-11-15 14:31:04 overwrite assets/css/style.css 
2014-11-15 14:31:10     error assets/sass/style.scss (Line 57 of assets/sass/themes/_main.scss: Invalid CSS after "			$screen-md": expected ":", was "{")
2014-11-15 14:31:10 identical assets/css/style.css 
2014-11-15 14:31:21 overwrite assets/css/style.css 
2014-11-15 14:32:36 overwrite assets/css/style.css 
2014-11-15 14:35:16 identical assets/css/responsive.css 
2014-11-15 14:35:21 identical assets/css/style.css 
2014-11-15 14:35:37 overwrite assets/css/style.css 
2014-11-15 14:39:16 overwrite assets/css/style.css 
2014-11-15 14:46:20 overwrite assets/css/style.css 
2014-11-15 14:46:39 overwrite assets/css/style.css 
2014-11-15 14:47:20 identical assets/css/style.css 
2014-11-15 14:48:04 overwrite assets/css/style.css 
2014-11-15 14:49:24 overwrite assets/css/style.css 
2014-11-15 14:50:07 overwrite assets/css/style.css 
2014-11-15 14:50:22 overwrite assets/css/style.css 
2014-11-15 14:51:14 overwrite assets/css/style.css 
2014-11-15 14:51:33 overwrite assets/css/style.css 
2014-11-16 00:16:32 overwrite assets/css/style.css 
2014-11-16 00:20:30 overwrite assets/css/style.css 
2014-11-16 00:20:43 overwrite assets/css/style.css 
2014-11-16 00:20:53 overwrite assets/css/style.css 
2014-11-16 00:21:12 overwrite assets/css/style.css 
2014-11-16 00:21:41 overwrite assets/css/style.css 
2014-11-16 00:23:51 overwrite assets/css/style.css 
2014-11-16 04:46:58     error assets/sass/style.scss (Line 103 of assets/sass/themes/_footer.scss: Invalid CSS after "}": expected "}", was "")
2014-11-16 04:46:58 overwrite assets/css/style.css 
2014-11-16 04:47:03     error assets/sass/style.scss (Line 103 of assets/sass/themes/_footer.scss: Invalid CSS after "}": expected "}", was "")
2014-11-16 04:47:03 identical assets/css/style.css 
2014-11-16 04:47:20     error assets/sass/style.scss (Line 102 of assets/sass/themes/_footer.scss: Invalid CSS after "}": expected "}", was "")
2014-11-16 04:47:20 overwrite assets/css/style.css 
2014-11-16 04:47:27 overwrite assets/css/style.css 
2014-11-16 04:47:35 identical assets/css/style.css 
2014-11-16 04:48:04 identical assets/css/style.css 
2014-11-16 04:48:17 identical assets/css/style.css 
2014-11-16 04:57:33 overwrite assets/css/style.css 
2014-11-16 04:59:56 overwrite assets/css/style.css 
2014-11-16 05:00:51 overwrite assets/css/style.css 
2014-11-16 05:01:10 overwrite assets/css/style.css 
2014-11-16 05:02:56 overwrite assets/css/style.css 
2014-11-16 05:06:00 overwrite assets/css/style.css 
2014-11-16 05:06:13 overwrite assets/css/style.css 
2014-11-16 05:06:36 overwrite assets/css/style.css 
2014-11-16 05:11:19 identical assets/css/style.css 
2014-11-16 05:12:44 overwrite assets/css/style.css 
2014-11-16 05:14:34 overwrite assets/css/style.css 
2014-11-16 05:17:33 overwrite assets/css/style.css 
2014-11-16 05:20:17 overwrite assets/css/style.css 
2014-11-16 05:22:25 overwrite assets/css/style.css 
2014-11-16 05:23:43 overwrite assets/css/style.css 
2014-11-16 05:24:11 identical assets/css/style.css 
2014-11-16 05:28:09 overwrite assets/css/style.css 
2014-11-16 05:29:05 overwrite assets/css/style.css 
2014-11-16 05:30:24 overwrite assets/css/style.css 
2014-11-16 05:31:17 overwrite assets/css/style.css 
2014-11-16 05:31:45 overwrite assets/css/style.css 
2014-11-16 05:32:28 overwrite assets/css/style.css 
2014-11-16 05:32:54 overwrite assets/css/style.css 
2014-11-16 05:33:08 overwrite assets/css/style.css 
2014-11-16 05:33:49 overwrite assets/css/style.css 
2014-11-16 05:34:15 overwrite assets/css/style.css 
2014-11-16 05:35:09 overwrite assets/css/style.css 
2014-11-16 05:35:20 overwrite assets/css/style.css 
2014-11-16 05:40:37 overwrite assets/css/style.css 
2014-11-16 05:41:32 overwrite assets/css/style.css 
2014-11-16 05:42:28 overwrite assets/css/style.css 
2014-11-16 05:43:05 identical assets/css/style.css 
2014-11-16 05:46:23 overwrite assets/css/style.css 
2014-11-16 05:46:43 overwrite assets/css/style.css 
2014-11-16 05:47:39 overwrite assets/css/style.css 
2014-11-16 05:48:15 overwrite assets/css/style.css 
2014-11-16 05:50:59 overwrite assets/css/style.css 
2014-11-16 05:51:21 overwrite assets/css/style.css 
2014-11-16 05:52:18 overwrite assets/css/style.css 
2014-11-16 05:52:50 overwrite assets/css/style.css 
2014-11-16 05:53:01 overwrite assets/css/style.css 
2014-11-16 05:54:18 overwrite assets/css/style.css 
2014-11-16 05:54:56 overwrite assets/css/style.css 
2014-11-16 09:57:35 overwrite assets/css/style.css 
2014-11-16 10:08:22 overwrite assets/css/style.css 
2014-11-16 10:10:17 identical assets/css/style.css 
2014-11-16 10:10:47 overwrite assets/css/style.css 
2014-11-16 10:14:00 overwrite assets/css/style.css 
2014-11-16 10:17:58 overwrite assets/css/style.css 
2014-11-16 10:21:06 overwrite assets/css/style.css 
2014-11-16 10:21:44 overwrite assets/css/style.css 
2014-11-18 16:04:03 overwrite assets/css/style.css 
2014-11-18 16:04:47 overwrite assets/css/style.css 
2014-11-18 16:17:31 overwrite assets/css/style.css 
2014-11-18 16:17:38 overwrite assets/css/style.css 
2014-11-18 16:18:13 overwrite assets/css/style.css 
2014-11-18 16:18:34 overwrite assets/css/style.css 
2014-11-18 16:21:46 overwrite assets/css/style.css 
2014-11-18 16:22:23 overwrite assets/css/style.css 
2014-11-18 16:22:41 overwrite assets/css/style.css 
2014-11-18 16:45:35 overwrite assets/css/style.css 
2014-11-19 00:17:16 identical assets/css/style.css 
2014-11-19 00:22:36 overwrite assets/css/style.css 
2014-11-19 00:22:58 overwrite assets/css/style.css 
2014-11-19 00:23:54 overwrite assets/css/style.css 
2014-11-19 00:24:16 overwrite assets/css/style.css 
2014-11-19 00:24:34 overwrite assets/css/style.css 
2014-11-19 00:24:48 overwrite assets/css/style.css 
2014-11-19 00:26:04 overwrite assets/css/style.css 
2014-11-19 00:27:38 overwrite assets/css/style.css 
2014-11-19 00:28:45 overwrite assets/css/style.css 
2014-11-19 00:29:45 overwrite assets/css/style.css 
2014-11-19 00:31:05 overwrite assets/css/style.css 
2014-11-19 00:31:31 overwrite assets/css/style.css 
2014-11-19 00:33:28 overwrite assets/css/style.css 
2014-11-19 00:34:03 overwrite assets/css/style.css 
2014-11-19 00:34:34 overwrite assets/css/style.css 
2014-11-19 00:36:16 overwrite assets/css/style.css 
2014-11-19 00:49:28 overwrite assets/css/style.css 
2014-11-19 00:49:55 overwrite assets/css/style.css 
2014-11-19 00:56:11 overwrite assets/css/style.css 
2014-11-19 00:56:25 overwrite assets/css/style.css 
2014-11-19 00:59:43 overwrite assets/css/partials/grid_thumbs.css 
2014-11-19 01:01:49 overwrite assets/css/style.css 
2014-11-19 01:06:14 identical assets/css/style.css 
2014-11-19 01:06:36 overwrite assets/css/style.css 
2014-11-19 01:06:42 identical assets/css/style.css 
2014-11-19 01:07:11 overwrite assets/css/style.css 
2014-11-19 01:10:40 overwrite assets/css/style.css 
2014-11-19 01:10:55 overwrite assets/css/style.css 
2014-11-19 01:12:02 identical assets/css/style.css 
2014-11-19 01:13:04 overwrite assets/css/style.css 
2014-11-19 01:13:46 identical assets/css/style.css 
2014-11-19 01:15:32 overwrite assets/css/style.css 
2014-11-19 01:16:48 identical assets/css/style.css 
2014-11-19 01:18:29     error assets/sass/style.scss (Line 25 of assets/sass/themes/_main.scss: Undefined variable: "$screen-large".)
2014-11-19 01:18:29 overwrite assets/css/style.css 
2014-11-19 01:19:08 overwrite assets/css/style.css 
2014-11-19 01:20:36 overwrite assets/css/style.css 
2014-11-19 01:21:54 overwrite assets/css/style.css 
2014-11-19 01:22:22 identical assets/css/style.css 
2014-11-19 01:22:51 overwrite assets/css/style.css 
2014-11-19 01:25:58     error assets/sass/style.scss (Line 35 of assets/sass/themes/_main.scss: Undefined variable: "$screen-lg-max".)
2014-11-19 01:25:58 overwrite assets/css/style.css 
2014-11-19 01:26:46 overwrite assets/css/style.css 
2014-11-19 01:27:49 identical assets/css/style.css 
2014-11-19 01:28:17 overwrite assets/css/style.css 
2014-11-19 01:39:37 overwrite assets/css/style.css 
2014-11-19 01:40:23 identical assets/css/responsive.css 
2014-11-19 01:40:25 identical assets/css/style.css 
2014-11-19 01:40:31 overwrite assets/css/style.css 
2014-11-19 01:47:27 overwrite assets/css/style.css 
2014-11-19 01:47:50 overwrite assets/css/style.css 
2014-11-19 01:53:27 overwrite assets/css/style.css 
2014-11-19 01:54:04 overwrite assets/css/style.css 
2014-11-19 01:54:37 overwrite assets/css/style.css 
2014-11-19 01:58:53 overwrite assets/css/style.css 
2014-11-19 01:59:10 overwrite assets/css/style.css 
2014-11-19 02:13:29 overwrite assets/css/style.css 
2014-11-19 02:14:20 overwrite assets/css/style.css 
2014-11-19 02:24:15 overwrite assets/css/style.css 
2014-11-19 02:43:24 overwrite assets/css/style.css 
2014-11-19 02:44:02 overwrite assets/css/style.css 
2014-11-20 05:37:05 overwrite assets/css/style.css 
2014-11-20 05:37:22 overwrite assets/css/style.css 
2014-11-20 05:38:23 overwrite assets/css/style.css 
2014-11-20 05:40:45 identical assets/css/style.css 
2014-11-20 05:42:11 overwrite assets/css/style.css 
2014-11-20 05:42:22 overwrite assets/css/style.css 
2014-11-20 05:44:29 overwrite assets/css/style.css 
2014-11-20 05:46:13 overwrite assets/css/style.css 
2014-11-20 05:46:31 overwrite assets/css/style.css 
2014-11-20 05:53:28 overwrite assets/css/style.css 
2014-11-20 05:53:43 identical assets/css/style.css 
2014-11-20 05:54:35 overwrite assets/css/style.css 
2014-11-20 05:55:58 overwrite assets/css/style.css 
2014-11-20 05:57:02 overwrite assets/css/style.css 
